<?xml version="1.0" encoding="utf-8"?>
<!-- Generator: Adobe Illustrator 19.2.0, SVG Export Plug-In . SVG Version: 6.00 Build 0)  -->
<svg version="1.1" id="Layer_1" xmlns="http://www.w3.org/2000/svg" xmlns:xlink="http://www.w3.org/1999/xlink" x="0px" y="0px"
	 viewBox="0 0 85.7 59.3" style="enable-background:new 0 0 85.7 59.3;" xml:space="preserve">
<style type="text/css">
	.st0{fill:url(#SVGID_1_);stroke:#00264F;stroke-miterlimit:10;}
	.st1{fill:#0066CB;}
	.st2{fill:none;stroke:#0066CB;stroke-width:0.3097;}
	.st3{fill:#CC0001;}
	.st4{fill:#231F20;}
	.st5{fill:#FFFFFF;}
</style>
<linearGradient id="SVGID_1_" gradientUnits="userSpaceOnUse" x1="42" y1="2.074" x2="42" y2="56.074">
	<stop  offset="0" style="stop-color:#0259AA"/>
	<stop  offset="1" style="stop-color:#013C86"/>
</linearGradient>
<path class="st0" d="M79,56.1H5c-1.7,0-3-1.4-3-3v-48c0-1.6,1.3-3,3-3h74c1.7,0,3,1.3,3,3v48C82,54.7,80.7,56.1,79,56.1z"/>
<g id="layer1_1_" transform="translate(-457.20465,-631.07671)">
	<path id="path618" class="st1" d="M499.7,673.7c3.6-3.2,5.8-7.9,5.8-13.1c0-5.2-2.2-9.9-5.8-13.1c-3.1-2.8-7.3-4.6-11.9-4.6
		c-9.8,0-17.7,7.9-17.7,17.7c0,9.8,7.9,17.7,17.7,17.7C492.3,678.3,496.5,676.6,499.7,673.7"/>
	<path id="path620" class="st1" d="M499.7,673.7c3.6-3.2,5.8-7.9,5.8-13.1c0-5.2-2.2-9.9-5.8-13.1"/>
	<path id="path622" class="st2" d="M499.7,673.7c3.6-3.2,5.8-7.9,5.8-13.1c0-5.2-2.2-9.9-5.8-13.1"/>
	<path id="path624" class="st3" d="M511.6,642.9c-4.6,0-8.8,1.7-11.9,4.6c-0.6,0.6-1.2,1.2-1.8,1.9h3.6c0.5,0.6,0.9,1.2,1.3,1.9
		h-6.3c-0.4,0.6-0.7,1.2-1,1.9h8.3c0.3,0.6,0.5,1.2,0.7,1.9h-9.8c-0.2,0.6-0.4,1.2-0.5,1.9h10.9c0.3,1.2,0.4,2.5,0.4,3.7
		c0,2-0.3,3.9-0.9,5.6h-9.8c0.2,0.6,0.4,1.3,0.7,1.9h8.3c-0.3,0.6-0.6,1.3-1,1.9h-6.3c0.4,0.7,0.9,1.3,1.3,1.9h3.6
		c-0.6,0.7-1.2,1.3-1.8,1.9c3.1,2.8,7.3,4.6,11.9,4.6c9.8,0,17.7-7.9,17.7-17.7C529.3,650.8,521.3,642.9,511.6,642.9"/>
	<path id="path626" class="st4" d="M527.4,670.4L527.4,670.4c0.1,0,0.1,0,0.1,0c0,0,0.1,0,0.1-0.1c0,0,0,0-0.1-0.1c0,0-0.1,0-0.1,0
		h-0.1V670.4L527.4,670.4z M527.4,670.7h-0.1v-0.5h0.2c0.1,0,0.1,0,0.1,0c0,0,0.1,0.1,0.1,0.1c0,0.1,0,0.1-0.1,0.1l0.1,0.2h-0.1
		l-0.1-0.2h-0.1L527.4,670.7L527.4,670.7z M527.5,670.9c0.2,0,0.4-0.2,0.4-0.4c0-0.2-0.2-0.4-0.4-0.4c-0.2,0-0.4,0.2-0.4,0.4
		C527.1,670.7,527.2,670.9,527.5,670.9z M526.9,670.5c0-0.3,0.3-0.6,0.6-0.6c0.3,0,0.6,0.3,0.6,0.6s-0.3,0.6-0.6,0.6
		C527.2,671,526.9,670.8,526.9,670.5"/>
	<path id="path628" class="st4" d="M485,665.5h-2.2l1.3-6.9l-3,6.9h-1.8l-0.4-6.9l-1.5,6.9h-2l1.7-9h3.5l0.1,5.6l2.4-5.6h3.7
		L485,665.5"/>
	<path id="path630" class="st4" d="M509.7,665.4c-0.6,0.2-1.1,0.2-1.6,0.2c-1.1,0-1.7-0.6-1.7-1.6c0-0.2,0-0.4,0.1-0.7l0.1-0.7
		l0.1-0.6l1-5.6h2.2l-0.3,1.7h1.1l-0.3,1.8h-1.1l-0.6,3c0,0.1,0,0.2,0,0.3c0,0.4,0.2,0.5,0.7,0.5c0.3,0,0.4,0,0.6-0.1L509.7,665.4"
		/>
	<path id="path632" class="st4" d="M500.9,660.5c0,0.9,0.5,1.6,1.7,2c0.9,0.4,1.1,0.5,1.1,0.8c0,0.5-0.4,0.7-1.3,0.7
		c-0.7,0-1.3-0.1-2-0.3l-0.3,1.7l0.1,0l0.4,0.1c0.1,0,0.3,0,0.6,0.1c0.5,0,0.9,0.1,1.2,0.1c2.3,0,3.4-0.8,3.4-2.4c0-1-0.4-1.6-1.6-2
		c-0.9-0.4-1.1-0.4-1.1-0.8c0-0.4,0.4-0.6,1.1-0.6c0.4,0,1.1,0,1.6,0.1l0.3-1.7c-0.6-0.1-1.4-0.1-1.9-0.1
		C501.8,658.1,500.9,659.2,500.9,660.5"/>
	<path id="path634" class="st4" d="M490.7,662.3c-0.2,0-0.3,0-0.5,0c-1.2,0-1.9,0.4-1.9,1.1c0,0.5,0.3,0.7,0.8,0.7
		C490,664.1,490.6,663.3,490.7,662.3L490.7,662.3z M492.2,665.5h-1.8l0.1-0.8c-0.6,0.6-1.3,0.9-2.3,0.9c-1.2,0-2-0.8-2-2
		c0-1.8,1.4-2.8,3.9-2.8c0.3,0,0.6,0,0.9,0.1c0.1-0.2,0.1-0.3,0.1-0.5c0-0.5-0.4-0.7-1.4-0.7c-0.6,0-1.3,0.1-1.8,0.2l-0.3,0.1
		l-0.2,0l0.3-1.6c1.1-0.3,1.8-0.4,2.6-0.4c1.9,0,2.9,0.7,2.9,2.1c0,0.4,0,0.6-0.2,1.4l-0.4,2.6l-0.1,0.5l-0.1,0.4l-0.1,0.3
		L492.2,665.5"/>
	<path id="path636" class="st4" d="M498.3,661c0-0.2,0-0.3,0-0.4c0-0.6-0.4-0.9-1.1-0.9c-0.7,0-1.2,0.5-1.4,1.3L498.3,661L498.3,661
		z M499.4,665.4c-0.8,0.2-1.5,0.3-2.3,0.3c-2.5,0-3.7-1.1-3.7-3.3c0-2.5,1.6-4.4,3.8-4.4c1.8,0,3,1,3,2.7c0,0.5-0.1,1.1-0.3,1.8
		h-4.4c0,0.1,0,0.2,0,0.2c0,0.8,0.7,1.3,1.9,1.3c0.8,0,1.5-0.1,2.3-0.5L499.4,665.4"/>
	<path id="path638" class="st4" d="M520.7,661.3c0-0.8-0.3-1.5-1.2-1.5c-1.1,0-1.8,1.3-1.8,2.5c0,1,0.5,1.7,1.3,1.6
		c0.5,0,1.5-0.7,1.7-1.8C520.7,661.9,520.7,661.7,520.7,661.3z M522.9,662.2c-0.3,2.4-2,3.5-4.3,3.5c-2.5,0-3.5-1.5-3.5-3.4
		c0-2.6,1.7-4.3,4.3-4.3c2.3,0,3.5,1.4,3.5,3.3C523,661.8,523,661.8,522.9,662.2"/>
	<path id="path640" class="st5" d="M523.7,664.4L523.7,664.4c0.1,0,0.1,0,0.1,0c0,0,0,0,0-0.1c0,0,0,0,0,0c0,0-0.1,0-0.1,0h-0.1
		V664.4L523.7,664.4z M523.7,664.7h-0.1v-0.5h0.2c0,0,0.1,0,0.1,0c0,0,0.1,0.1,0.1,0.1c0,0.1,0,0.1-0.1,0.1l0.1,0.2h-0.1l-0.1-0.2
		h-0.1V664.7L523.7,664.7z M523.7,664.9c0.2,0,0.4-0.2,0.4-0.4c0-0.2-0.2-0.4-0.4-0.4c-0.2,0-0.4,0.2-0.4,0.4
		C523.3,664.7,523.5,664.9,523.7,664.9z M523.2,664.4c0-0.3,0.3-0.6,0.6-0.6c0.3,0,0.6,0.3,0.6,0.6c0,0.3-0.3,0.6-0.6,0.6
		C523.4,665,523.2,664.7,523.2,664.4"/>
	<path id="path642" class="st5" d="M485.6,665h-2.2l1.3-6.9l-3,6.9h-2l-0.4-6.9L478,665h-2l1.7-9h3.4l0.2,5.6l2.4-5.6h3.6L485.6,665
		"/>
	<path id="path644" class="st5" d="M510.2,664.9c-0.6,0.2-1.1,0.2-1.6,0.2c-1.1,0-1.7-0.6-1.7-1.6c0-0.2,0-0.4,0.1-0.7l0.1-0.7
		l0.1-0.6l1-5.6h2.2l-0.3,1.7h1.1l-0.3,1.8h-1.1l-0.6,3c0,0.1,0,0.2,0,0.3c0,0.4,0.2,0.5,0.8,0.5c0.2,0,0.4,0,0.6-0.1L510.2,664.9"
		/>
	<path id="path646" class="st4" d="M515.9,659.8l-0.1-0.2l0.4-1.1c-0.1,0-0.2,0-0.2,0c-0.1,0-0.2,0-0.2,0c-0.1,0-0.1,0-0.2,0
		c-0.7,0-1.2,0.3-1.9,1.2l0.2-1.3h-2.3l-1.3,7.3h2.2c0.3-1.7,0.4-2.6,0.6-3.4c0.3-1.3,1.3-1.9,2-1.8c0.1,0,0.1,0,0.2,0.1l0.1,0
		L515.9,659.8"/>
	<path id="path648" class="st5" d="M516.6,657.8c-0.2-0.1-0.2-0.1-0.2-0.1c-0.1,0-0.2,0-0.2,0c-0.1,0-0.2,0-0.2,0
		c-0.7,0-1.2,0.3-1.9,1.2l0.2-1.1h-2l-1.3,7.3h2.2c0.8-4.5,1.1-5.2,2.2-5.2c0.1,0,0.2,0,0.3,0l0.3,0.1L516.6,657.8"/>
	<path id="path650" class="st5" d="M501.5,660c0,0.9,0.5,1.6,1.7,2c0.9,0.4,1,0.5,1,0.8c0,0.5-0.4,0.7-1.3,0.7c-0.7,0-1.3-0.1-2-0.3
		l-0.3,1.7l0.1,0l0.4,0.1c0.1,0,0.3,0,0.6,0.1c0.5,0,0.9,0.1,1.2,0.1c2.4,0,3.4-0.8,3.4-2.4c0-1-0.4-1.6-1.6-2c-0.9-0.4-1-0.5-1-0.8
		c0-0.4,0.4-0.6,1.1-0.6c0.4,0,1,0,1.6,0.1l0.3-1.7c-0.6-0.1-1.4-0.1-2-0.1C502.3,657.5,501.5,658.7,501.5,660"/>
	<path id="path652" class="st5" d="M491.1,661.8c-0.2,0-0.3,0-0.5,0c-1.2,0-1.9,0.4-1.9,1.1c0,0.5,0.3,0.7,0.8,0.7
		C490.5,663.6,491.1,662.8,491.1,661.8L491.1,661.8z M492.7,665h-1.8l0.1-0.8c-0.6,0.6-1.3,0.9-2.3,0.9c-1.2,0-2-0.8-2-2
		c0-1.8,1.4-2.8,3.9-2.8c0.2,0,0.6,0,0.9,0.1c0.1-0.2,0.1-0.3,0.1-0.5c0-0.5-0.4-0.7-1.4-0.7c-0.6,0-1.3,0.1-1.8,0.2l-0.3,0.1
		l-0.2,0l0.3-1.6c1.1-0.3,1.8-0.4,2.6-0.4c1.9,0,2.9,0.7,2.9,2.1c0,0.4,0,0.6-0.2,1.4l-0.5,2.6l-0.1,0.5l-0.1,0.4l0,0.3L492.7,665"
		/>
	<path id="path654" class="st5" d="M498.8,660.5c0-0.2,0-0.3,0-0.4c0-0.6-0.4-0.9-1-0.9c-0.7,0-1.2,0.5-1.4,1.3L498.8,660.5
		L498.8,660.5z M500,664.8c-0.7,0.2-1.5,0.3-2.2,0.3c-2.5,0-3.8-1.1-3.8-3.3c0-2.5,1.6-4.3,3.8-4.3c1.8,0,3,1,3,2.7
		c0,0.5-0.1,1.1-0.3,1.8h-4.4c0,0.1,0,0.2,0,0.2c0,0.8,0.7,1.3,1.9,1.3c0.8,0,1.5-0.1,2.3-0.5L500,664.8"/>
	<path id="path656" class="st5" d="M521.2,660.8c0-0.8-0.3-1.5-1.2-1.5c-1.1,0-1.8,1.3-1.8,2.5c0,1,0.5,1.7,1.3,1.6
		c0.5,0,1.5-0.7,1.7-1.8C521.2,661.4,521.2,661.1,521.2,660.8z M523.5,661.7c-0.3,2.4-2,3.5-4.3,3.5c-2.5,0-3.5-1.5-3.5-3.4
		c0-2.6,1.7-4.3,4.3-4.3c2.3,0,3.5,1.4,3.5,3.3C523.6,661.2,523.6,661.3,523.5,661.7"/>
</g>
</svg>
