<?xml version="1.0" encoding="utf-8"?>
<!-- Generator: Adobe Illustrator 19.2.0, SVG Export Plug-In . SVG Version: 6.00 Build 0)  -->
<svg version="1.1" id="Layer_1" xmlns="http://www.w3.org/2000/svg" xmlns:xlink="http://www.w3.org/1999/xlink" x="0px" y="0px"
	 viewBox="0 0 85.7 59.3" style="enable-background:new 0 0 85.7 59.3;" xml:space="preserve">
<style type="text/css">
	.st0{fill:url(#SVGID_1_);stroke:#00264F;stroke-miterlimit:10;}
	.st1{fill:#FF9900;}
	.st2{fill:#CC0000;}
	.st3{fill:#FCB340;}
	.st4{fill:#000066;}
	.st5{fill:#FFFFFF;}
</style>
<linearGradient id="SVGID_1_" gradientUnits="userSpaceOnUse" x1="42" y1="2.074" x2="42" y2="56.074">
	<stop  offset="0" style="stop-color:#0259AA"/>
	<stop  offset="1" style="stop-color:#013C86"/>
</linearGradient>
<path class="st0" d="M79,56.1H5c-1.7,0-3-1.4-3-3v-48c0-1.6,1.3-3,3-3h74c1.7,0,3,1.3,3,3v48C82,54.7,80.7,56.1,79,56.1z"/>
<g id="layer1">
	<g id="g10305">
		<path id="path2268" class="st1" d="M72.2,29.1c0,9.8-7.9,17.7-17.7,17.7c-9.8,0-17.7-7.9-17.7-17.7c0,0,0,0,0,0
			c0-9.8,7.9-17.7,17.7-17.7C64.2,11.3,72.2,19.3,72.2,29.1C72.2,29.1,72.2,29.1,72.2,29.1z"/>
		<path id="path1350" class="st2" d="M30.5,11.3c-9.7,0.1-17.6,8-17.6,17.7c0,9.8,7.9,17.7,17.7,17.7c4.6,0,8.8-1.8,11.9-4.6
			c0,0,0,0,0,0h0c0.6-0.6,1.2-1.2,1.8-1.9h-3.6c-0.5-0.6-0.9-1.2-1.3-1.8h6.3c0.4-0.6,0.7-1.2,1-1.9h-8.3c-0.3-0.6-0.5-1.2-0.7-1.9
			h9.8c0.6-1.8,0.9-3.7,0.9-5.6c0-1.3-0.1-2.6-0.4-3.8H37.1c0.1-0.6,0.3-1.3,0.5-1.9h9.8c-0.2-0.7-0.5-1.3-0.8-1.9h-8.3
			c0.3-0.6,0.6-1.3,1-1.9h6.3c-0.4-0.7-0.9-1.3-1.4-1.9h-3.5c0.5-0.6,1.1-1.2,1.8-1.8c-3.2-2.9-7.3-4.6-11.9-4.6
			C30.6,11.3,30.6,11.3,30.5,11.3z"/>
		<path id="use9412" class="st3" d="M70.4,38.3c0.1,0,0.2,0,0.3,0.1c0.1,0,0.2,0.1,0.2,0.2c0.1,0.1,0.1,0.2,0.1,0.3
			c0,0.1,0,0.2-0.1,0.3c-0.1,0.1-0.1,0.2-0.2,0.2c-0.1,0-0.2,0.1-0.3,0.1c-0.1,0-0.2,0-0.3-0.1c-0.1-0.1-0.2-0.1-0.2-0.2
			c-0.1-0.1-0.1-0.2-0.1-0.3c0-0.1,0-0.2,0.1-0.3c0.1-0.1,0.1-0.2,0.2-0.2C70.2,38.4,70.3,38.3,70.4,38.3 M70.4,38.4
			c-0.1,0-0.2,0-0.2,0.1c-0.1,0-0.1,0.1-0.2,0.2c0,0.1-0.1,0.2-0.1,0.2c0,0.1,0,0.2,0.1,0.2c0,0.1,0.1,0.1,0.2,0.2
			c0.1,0,0.2,0.1,0.2,0.1c0.1,0,0.2,0,0.2-0.1c0.1,0,0.1-0.1,0.2-0.2c0-0.1,0.1-0.2,0.1-0.2c0-0.1,0-0.2-0.1-0.2
			c0-0.1-0.1-0.1-0.2-0.2C70.6,38.5,70.5,38.4,70.4,38.4 M70.2,39.2v-0.6h0.2c0.1,0,0.1,0,0.2,0c0,0,0.1,0,0.1,0.1c0,0,0,0.1,0,0.1
			c0,0,0,0.1,0,0.1c0,0-0.1,0.1-0.1,0.1c0,0,0,0,0.1,0c0,0,0.1,0.1,0.1,0.1l0.1,0.1h-0.1l-0.1-0.1c0-0.1-0.1-0.1-0.1-0.1
			c0,0,0,0-0.1,0h-0.1v0.3L70.2,39.2 M70.3,38.9h0.1c0.1,0,0.1,0,0.1,0c0,0,0,0,0-0.1c0,0,0,0,0,0c0,0,0,0,0,0c0,0-0.1,0-0.1,0h-0.1
			L70.3,38.9"/>
	</g>
	<g id="g16480">
		<g id="g13802" transform="translate(-13.74405,15.9939)">
			<path id="path13804" class="st4" d="M50.3,18.2l0.2-1.6c-0.1,0-0.3,0.1-0.5,0.1c-0.7,0-0.7-0.4-0.7-0.6l0.6-3.2h1l0.2-1.8h-0.9
				l0.2-1.1h-2c0,0-1.1,6.2-1.1,7c0,1.1,0.6,1.6,1.5,1.6C49.6,18.4,50.1,18.2,50.3,18.2z"/>
			<path id="path13806" class="st4" d="M50.9,15.1c0,2.7,1.8,3.3,3.3,3.3c1.4,0,2.1-0.3,2.1-0.3l0.3-1.8c0,0-1.2,0.5-2.1,0.5
				c-2,0-1.7-1.5-1.7-1.5l3.9,0c0,0,0.2-1.2,0.2-1.7c0-1.2-0.7-2.8-2.8-2.8C52.3,10.8,50.9,12.8,50.9,15.1z M54.2,12.4
				c1.1,0,0.9,1.2,0.9,1.3H53C53,13.6,53.2,12.4,54.2,12.4z"/>
			<path id="path13808" class="st4" d="M66.2,18.2l0.3-2.1c0,0-0.9,0.5-1.6,0.5c-1.3,0-1.9-1-1.9-2.1c0-2.2,1.2-3.5,2.4-3.5
				c1,0,1.7,0.5,1.7,0.5l0.3-2c0,0-0.9-0.7-1.9-0.7c-3,0-4.6,2-4.6,5.6c0,2.4,1.3,4,3.5,4C65.1,18.4,66.2,18.2,66.2,18.2z"/>
			<path id="path13810" class="st4" d="M39.9,10.8c-1.3,0-2.3,0.4-2.3,0.4l-0.3,1.6c0,0,0.8-0.3,2.1-0.3c0.7,0,1.2,0.1,1.2,0.7
				c0,0.3-0.1,0.5-0.1,0.5s-0.6,0-0.8,0c-1.8,0-3.3,0.7-3.3,2.8c0,1.7,1.1,2,1.8,2c1.3,0,1.9-0.8,1.9-0.8l0,0.7c0,0,1.7,0,1.7,0
				l0.7-5.2C42.5,10.9,40.6,10.8,39.9,10.8z M40.2,15c0,0.3-0.1,1.8-1.2,1.8c-0.6,0-0.7-0.4-0.7-0.7c0-0.5,0.3-1.1,1.7-1.1
				C40.2,15,40.1,15,40.2,15z"/>
			<path id="path13812" class="st4" d="M44.3,18.4c0.4,0,2.9,0.1,2.9-2.4c0-2.3-2.3-1.9-2.3-2.8c0-0.5,0.4-0.6,1-0.6
				c0.3,0,1.3,0.1,1.3,0.1l0.2-1.7c0,0-0.7-0.1-1.7-0.1c-1.4,0-2.8,0.6-2.8,2.5c0,2.2,2.4,1.9,2.4,2.9c0,0.6-0.7,0.7-1.2,0.7
				c-0.9,0-1.7-0.3-1.7-0.3l-0.3,1.7C42.2,18.1,42.7,18.4,44.3,18.4z"/>
			<path id="path13814" class="st4" d="M81.7,9.3l-0.3,2.5c0,0-0.7-1-1.8-1c-2.1,0-3.2,2.1-3.2,4.5c0,1.5,0.8,3.1,2.3,3.1
				c1.1,0,1.8-0.8,1.8-0.8l-0.1,0.7h1.8l1.4-9L81.7,9.3z M80.9,14.2c0,1-0.5,2.3-1.5,2.3c-0.7,0-1-0.6-1-1.5c0-1.5,0.7-2.4,1.5-2.4
				C80.6,12.6,80.9,13.1,80.9,14.2z"/>
			<path id="path13816" class="st4" d="M29.7,18.3l1.1-6.8l0.2,6.8h1.3l2.4-6.8l-1.1,6.8h1.9l1.5-9l-3.1,0l-1.8,5.5l-0.1-5.5h-2.8
				l-1.5,9H29.7L29.7,18.3z"/>
			<path id="path13818" class="st4" d="M58.8,18.3c0.5-3.1,0.7-5.6,2.3-5.1c0.2-1.2,0.8-2.3,1-2.8c0,0-0.1-0.1-0.6-0.1
				c-0.8,0-2,1.7-2,1.7l0.2-1.1H58l-1.2,7.3L58.8,18.3L58.8,18.3z"/>
			<g id="use14699" transform="translate(845.3001,0)">
				<path id="path13810_1_" class="st4" d="M-775.2,10.8c-1.3,0-2.3,0.4-2.3,0.4l-0.3,1.6c0,0,0.8-0.3,2.1-0.3
					c0.7,0,1.2,0.1,1.2,0.7c0,0.3-0.1,0.5-0.1,0.5s-0.6,0-0.8,0c-1.8,0-3.3,0.7-3.3,2.8c0,1.7,1.1,2,1.8,2c1.3,0,1.9-0.8,1.9-0.8
					l0,0.7h1.7l0.7-5.2C-772.6,10.9-774.5,10.8-775.2,10.8z M-774.9,15c0,0.3-0.1,1.8-1.2,1.8c-0.6,0-0.7-0.4-0.7-0.7
					c0-0.5,0.3-1.1,1.7-1.1C-774.9,15-775,15-774.9,15z"/>
			</g>
			<path id="use14701" class="st4" d="M74.6,18.3c0.3-2.3,0.9-5.5,2.3-5.1c0.2-1.2,0-1.2-0.5-1.2c-0.8,0-1,0-1,0l0.2-1.1h-1.8
				l-1.2,7.3L74.6,18.3L74.6,18.3z"/>
		</g>
		<g id="g10289">
			<path id="path4157" class="st5" d="M37,33.6l0.2-1.6C37.1,32,37,32,36.8,32c-0.7,0-0.7-0.3-0.7-0.6l0.5-3.3h1l0.2-1.8h-0.9
				l0.2-1.1h-1.9c0,0-1.1,6.2-1.1,7c0,1.1,0.6,1.6,1.5,1.6C36.3,33.8,36.9,33.6,37,33.6z"/>
			<path id="path4155" class="st5" d="M37.6,30.5c0,2.7,1.8,3.3,3.3,3.3c1.4,0,2-0.3,2-0.3l0.3-1.8c0,0-1.1,0.5-2,0.5
				c-2,0-1.7-1.5-1.7-1.5h3.8c0,0,0.2-1.2,0.2-1.7c0-1.2-0.6-2.8-2.7-2.8C39,26.2,37.6,28.2,37.6,30.5z M40.9,27.9
				c1.1,0,0.9,1.2,0.9,1.3h-2.1C39.7,29,39.9,27.9,40.9,27.9z"/>
			<path id="path4151" class="st5" d="M52.9,33.6l0.3-2.1c0,0-0.9,0.5-1.6,0.5c-1.3,0-1.9-1-1.9-2.1c0-2.2,1.2-3.5,2.4-3.5
				c1,0,1.7,0.5,1.7,0.5l0.3-2c0,0-1.1-0.5-2.1-0.5c-2.2,0-4.3,1.9-4.3,5.4c0,2.4,1.1,3.9,3.4,3.9C51.9,33.8,52.9,33.6,52.9,33.6z"
				/>
			<path id="path4149" class="st5" d="M26.7,26.2c-1.3,0-2.3,0.4-2.3,0.4l-0.3,1.6c0,0,0.8-0.3,2.1-0.3c0.7,0,1.2,0.1,1.2,0.7
				c0,0.3-0.1,0.5-0.1,0.5s-0.6,0-0.8,0c-1.6,0-3.3,0.7-3.3,2.8c0,1.7,1.1,2,1.8,2c1.3,0,1.9-0.9,1.9-0.9l-0.1,0.7h1.7l0.7-5.2
				C29.2,26.3,27.3,26.2,26.7,26.2z M27.1,30.4c0,0.3-0.2,1.8-1.3,1.8c-0.6,0-0.7-0.4-0.7-0.7c0-0.5,0.3-1.1,1.7-1.1
				C27,30.4,27,30.4,27.1,30.4z"/>
			<path id="path4145" class="st5" d="M31,33.8c0.4,0,2.9,0.1,2.9-2.4c0-2.3-2.3-1.9-2.3-2.8c0-0.5,0.4-0.6,1-0.6
				c0.3,0,1.3,0.1,1.3,0.1l0.2-1.7c0,0-0.7-0.1-1.7-0.1c-1.4,0-2.8,0.6-2.8,2.5c0,2.2,2.4,1.9,2.4,2.9c0,0.6-0.7,0.7-1.2,0.7
				c-0.9,0-1.7-0.3-1.7-0.3l-0.3,1.7C28.9,33.6,29.4,33.8,31,33.8z"/>
			<path id="path4139" class="st5" d="M68.5,24.7l-0.4,2.5c0,0-0.7-1-1.8-1c-1.7,0-3.2,2.1-3.2,4.5c0,1.5,0.8,3.1,2.3,3.1
				c1.1,0,1.8-0.8,1.8-0.8l-0.1,0.7H69l1.4-9L68.5,24.7z M67.7,29.6c0,1-0.5,2.3-1.5,2.3c-0.7,0-1-0.6-1-1.5c0-1.5,0.7-2.4,1.5-2.4
				C67.3,28.1,67.7,28.5,67.7,29.6z"/>
			<path id="path4133" class="st5" d="M16.4,33.7l1.1-6.8l0.2,6.8H19l2.4-6.8l-1.1,6.8h1.9l1.5-9h-3L19,30.2l-0.1-5.5h-2.8l-1.5,9
				C14.6,33.7,16.4,33.7,16.4,33.7z"/>
			<path id="path4131" class="st5" d="M45.5,33.7c0.5-3.1,0.7-5.7,2-5.2c0.2-1.2,0.5-1.7,0.7-2.2c0,0-0.1,0-0.4,0
				c-0.8,0-1.5,1.2-1.5,1.2l0.2-1.1h-1.8l-1.2,7.3H45.5z"/>
			<g id="use8523" transform="translate(847.0062,0)">
				<path id="path4149_1_" class="st5" d="M-789.7,26.2c-1.3,0-2.3,0.4-2.3,0.4l-0.3,1.6c0,0,0.8-0.3,2.1-0.3c0.7,0,1.2,0.1,1.2,0.7
					c0,0.3-0.1,0.5-0.1,0.5s-0.6,0-0.8,0c-1.6,0-3.3,0.7-3.3,2.8c0,1.7,1.1,2,1.8,2c1.3,0,1.9-0.9,1.9-0.9l-0.1,0.7c0,0,1.7,0,1.7,0
					l0.7-5.2C-787.1,26.3-789.1,26.2-789.7,26.2z M-789.3,30.4c0,0.3-0.2,1.8-1.3,1.8c-0.6,0-0.7-0.4-0.7-0.7c0-0.5,0.3-1.1,1.7-1.1
					C-789.4,30.4-789.4,30.4-789.3,30.4z"/>
			</g>
			<g id="use8525" transform="translate(442.2857,0)">
				<path id="path4131_1_" class="st5" d="M-380.9,33.7c0.5-3.1,0.7-5.7,2-5.2c0.2-1.2,0.5-1.7,0.7-2.2c0,0-0.1,0-0.4,0
					c-0.8,0-1.5,1.2-1.5,1.2l0.2-1.1h-1.8l-1.2,7.3H-380.9z"/>
			</g>
			<path id="text9407" class="st5" d="M70.4,32.6c0.1,0,0.2,0,0.3,0.1c0.1,0,0.2,0.1,0.2,0.2C70.9,33,71,33,71,33.1
				c0,0.1,0,0.2-0.1,0.3c-0.1,0.1-0.1,0.2-0.2,0.2c-0.1,0.1-0.2,0.1-0.3,0.1c-0.1,0-0.2,0-0.3-0.1c-0.1-0.1-0.2-0.1-0.2-0.2
				c-0.1-0.1-0.1-0.2-0.1-0.3c0-0.1,0-0.2,0.1-0.3c0.1-0.1,0.1-0.2,0.2-0.2C70.2,32.6,70.3,32.6,70.4,32.6 M70.4,32.7
				c-0.1,0-0.2,0-0.2,0.1c-0.1,0-0.1,0.1-0.2,0.2c0,0.1-0.1,0.2-0.1,0.2c0,0.1,0,0.2,0.1,0.2c0,0.1,0.1,0.1,0.2,0.2
				c0.1,0,0.2,0.1,0.2,0.1c0.1,0,0.2,0,0.2-0.1c0.1,0,0.1-0.1,0.2-0.2c0-0.1,0.1-0.2,0.1-0.2c0-0.1,0-0.2-0.1-0.2
				c0-0.1-0.1-0.1-0.2-0.2C70.6,32.7,70.5,32.7,70.4,32.7 M70.1,33.5v-0.6h0.2c0.1,0,0.1,0,0.2,0c0,0,0.1,0,0.1,0.1c0,0,0,0.1,0,0.1
				c0,0,0,0.1,0,0.1c0,0-0.1,0.1-0.1,0.1c0,0,0,0,0.1,0c0,0,0.1,0.1,0.1,0.1l0.1,0.1h-0.1l-0.1-0.1c0-0.1-0.1-0.1-0.1-0.1
				c0,0,0,0-0.1,0h-0.1v0.3L70.1,33.5 M70.2,33.1h0.1c0.1,0,0.1,0,0.1,0c0,0,0,0,0-0.1c0,0,0,0,0,0c0,0,0,0,0,0c0,0-0.1,0-0.1,0
				h-0.1L70.2,33.1"/>
		</g>
	</g>
</g>
</svg>
