<?xml version="1.0" encoding="utf-8"?>
<!-- Generator: Adobe Illustrator 19.2.0, SVG Export Plug-In . SVG Version: 6.00 Build 0)  -->
<svg version="1.1" id="Layer_1" xmlns="http://www.w3.org/2000/svg" xmlns:xlink="http://www.w3.org/1999/xlink" x="0px" y="0px"
	 viewBox="0 0 85.7 59.3" style="enable-background:new 0 0 85.7 59.3;" xml:space="preserve">
<style type="text/css">
	.st0{fill:url(#SVGID_1_);stroke:#B5B5B5;stroke-miterlimit:10;}
	.st1{fill:#3364D1;}
	.st2{fill:#FFAB00;}
</style>
<linearGradient id="SVGID_1_" gradientUnits="userSpaceOnUse" x1="42" y1="2.074" x2="42" y2="56.074">
	<stop  offset="0" style="stop-color:#FFFFFF"/>
	<stop  offset="0.9704" style="stop-color:#D9D9D9"/>
	<stop  offset="1" style="stop-color:#E2E9F1"/>
</linearGradient>
<path class="st0" d="M79,56.1H5c-1.7,0-3-1.4-3-3v-48c0-1.6,1.3-3,3-3h74c1.7,0,3,1.3,3,3v48C82,54.7,80.7,56.1,79,56.1z"/>
<g>
	<path class="st1" d="M52.6,18c-5.5,0-9.3,2.9-9.4,7.1c0,3.1,2.8,4.8,4.9,5.8c2.2,1,2.9,1.7,2.9,2.7c0,1.4-1.7,2.1-3.3,2.1
		c-2.2,0-3.4-0.3-5.2-1.1l-0.7-0.3L40.9,39c1.3,0.6,3.7,1.1,6.2,1.1c5.8,0,9.6-2.9,9.7-7.3c0-2.5-1.5-4.3-4.7-5.8
		c-1.9-1-3.1-1.7-3.1-2.7c0-0.9,1-1.8,3.2-1.8c1.8,0,3.1,0.4,4.1,0.8l0.5,0.2l0.8-4.7C56.4,18.5,54.7,18,52.6,18L52.6,18z
		 M35.3,18.4l-3.5,21.5h5.5l3.5-21.5L35.3,18.4L35.3,18.4z M27.2,18.4L21.8,33l-0.6-3c-1.4-3.6-4.3-7.5-7.7-9l5,18.8l5.9,0l8.7-21.4
		L27.2,18.4L27.2,18.4z M67.5,18.4c-1.3,0-2.3,0.4-2.9,1.8l-8.2,19.7h5.8c0,0,1-2.6,1.2-3.2c0.6,0,6.3,0,7.1,0
		c0.2,0.7,0.7,3.2,0.7,3.2h5.1l-4.5-21.5L67.5,18.4L67.5,18.4z M67.9,24.2l0.4,1.9c0,0,1.1,5.1,1.3,6.2h-4.6c0.5-1.2,2.2-6,2.2-6
		C67.1,26.3,67.6,25,67.9,24.2L67.9,24.2z"/>
	<path class="st2" d="M16.8,18.4H7.8l-0.1,0.4c7,1.8,11.5,6.1,13.5,11.3l-1.9-9.9C18.9,18.8,18,18.4,16.8,18.4"/>
</g>
</svg>
