<?xml version="1.0" encoding="utf-8"?>
<svg version="1.1" id="Layer_1" xmlns="http://www.w3.org/2000/svg" xmlns:xlink="http://www.w3.org/1999/xlink" x="0px" y="0px"
	 viewBox="0 0 85.7 59.3" style="enable-background:new 0 0 85.7 59.3;" xml:space="preserve">
<style type="text/css">
	.st0{fill:#FFE810;}
	.st1{fill:none;stroke:#FFE810;stroke-width:0.25;}
</style>
<path d="M79,56.8H5c-1.7,0-3-1.4-3-3v-48c0-1.7,1.3-3,3-3h74c1.7,0,3,1.4,3,3v48C82,55.4,80.7,56.8,79,56.8z"/>
<g>
	<rect id="rect3589" x="8" y="21.6" width="72.4" height="16.5"/>
	
		<path id="path2818" class="st0" d="
		M29.5,37.9c-0.5-0.1-1.1-0.4-1.4-0.7c-0.1-0.1-0.3-0.4-0.5-0.6l-0.2-0.4l0-2.8l0-2.8h1.5h1.5l0,2.4c0,2.2,0,2.4,0.1,2.6
		c0.1,0.3,0.3,0.3,0.5,0.3c0.3-0.1,0.4-0.2,0.4-2.9v-2.5h1.5h1.5v2.5c0,1.4,0,2.7-0.1,2.9c-0.2,1-0.9,1.7-2.1,1.9
		C31.6,38.1,30.1,38.1,29.5,37.9L29.5,37.9L29.5,37.9z M53.4,37.9c-0.6-0.2-1-0.4-1.5-0.8c-0.7-0.7-1-1.5-1-2.8c0-1.3,0.3-2.2,1-2.9
		c0.7-0.7,1.5-0.9,2.8-0.9c1.3,0,2.1,0.3,2.8,1c0.7,0.7,1,1.5,1,2.9c0,1.3-0.3,2.1-1,2.8c-0.7,0.7-1.5,1-2.8,1
		C54.1,38,53.8,38,53.4,37.9L53.4,37.9z M55.8,37.8L55.8,37.8z M55,35.9c0.4-0.3,0.5-2.4,0.2-3.1c-0.2-0.4-0.7-0.4-0.9,0
		c-0.4,0.7-0.2,3,0.2,3.2C54.6,36,54.9,36,55,35.9L55,35.9L55,35.9z M69.7,29.9v-8h0.6h0.6v8v8h-0.6h-0.6V29.9z M73,30v-7.9h0.5h0.5
		V30v7.9h-0.5H73V30z M36.4,34.2v-3.6h1.8H40l0.2,0.5c0.1,0.3,0.4,1.1,0.6,1.8l0.5,1.3l0-1.8l0-1.8h1.2h1.2v3.6v3.6l-1.8,0l-1.8,0
		L39.6,36l-0.7-1.9l0,1.9l0,1.9h-1.2h-1.2L36.4,34.2L36.4,34.2z M46,34.2v-3.6h1.5H49v3.6v3.6h-1.5H46V34.2z M60.4,34.2v-3.6h1.8H64
		l0.6,1.8l0.6,1.8l0-1.8l0-1.8h1.2h1.2v3.6v3.6H66h-1.8L63.6,36l-0.6-1.9l0,1.9l0,1.9h-1.2h-1.2V34.2z M29.6,29.5
		c-0.7-0.1-1.4-0.5-1.7-0.9c-0.2-0.3-0.4-0.7-0.4-1.2l0-0.4h1.5c1.4,0,1.5,0,1.5,0.1c0,0.2,0.2,0.5,0.3,0.6c0.2,0.1,0.5,0.1,0.7-0.1
		c0.4-0.4,0.2-0.5-1.4-1c-1.6-0.5-1.9-0.7-2.2-1.3c-0.2-0.6-0.2-1.5,0.1-2.1c0.3-0.6,1-1,1.8-1.2c0.6-0.1,2-0.1,2.6,0
		c1.2,0.2,1.8,0.9,1.9,1.9l0,0.4h-1.4h-1.4v-0.1c0-0.2-0.2-0.4-0.5-0.4c-0.2,0-0.5,0.2-0.5,0.3c0,0.2,0.3,0.3,1,0.5
		c1.5,0.4,2,0.6,2.4,1c0.4,0.4,0.5,0.8,0.5,1.5c0,0.3,0,0.7-0.1,0.8c-0.2,0.7-0.8,1.2-1.6,1.5c-0.4,0.1-0.6,0.2-1.6,0.2
		C30.5,29.5,29.8,29.5,29.6,29.5L29.6,29.5z M9.5,29.3c0,0-0.3-1.6-0.7-3.5S8,22.3,8,22.3l0-0.1l1.3,0l1.3,0l0.2,1.9
		c0.1,1,0.3,1.9,0.3,1.9c0,0,0.1-0.8,0.3-1.7c0.1-0.9,0.3-1.8,0.3-1.9l0-0.2h1.5h1.5l0.1,0.4c0,0.2,0.2,1,0.3,1.8
		c0.1,0.7,0.2,1.4,0.2,1.5s0.2-0.7,0.3-1.8l0.2-1.9h1.3c1.2,0,1.3,0,1.3,0.1c0,0.1-0.3,1.7-0.8,3.6l-0.8,3.5h-1.6h-1.6l-0.1-0.4
		c0-0.2-0.2-1.1-0.3-1.9c-0.1-0.8-0.2-1.4-0.2-1.5c0,0-0.2,0.8-0.3,1.9l-0.3,1.9h-1.6C10.2,29.4,9.5,29.3,9.5,29.3L9.5,29.3z
		 M11.2,26.2C11.2,26.1,11.2,26.2,11.2,26.2c0,0.2,0,0.2,0,0.1C11.2,26.2,11.2,26.2,11.2,26.2z M20.2,25.7v-3.6H23h2.8v1v1h-1.3
		h-1.3v0.3v0.3h1.2h1.2v1v1h-1.2h-1.2V27v0.3h1.4h1.4v1v1h-2.9h-2.9L20.2,25.7L20.2,25.7z M37.6,26.8v-2.6h-0.9h-0.9v-1v-1H39h3.2v1
		v1h-0.9h-0.9v2.6v2.6H39h-1.5C37.6,29.4,37.6,26.8,37.6,26.8z M44,25.7v-3.6h2.8h2.8v1v1h-1.3h-1.3v0.3v0.3h1.2h1.2v1v1h-1.2h-1.2
		V27v0.3h1.4h1.4v1v1h-2.9H44C44,29.4,44,25.7,44,25.7z M51.6,25.7v-3.6h2.5c2.6,0,2.9,0,3.4,0.3c0.6,0.3,0.8,0.7,0.8,1.5
		c0,0.3,0,0.7-0.1,0.8c-0.1,0.3-0.4,0.7-0.7,0.8l-0.2,0.1l0.3,0.1c0.4,0.2,0.6,0.5,0.7,1.8c0.1,0.4,0.2,1,0.2,1.3s0.1,0.5,0.1,0.5
		c0,0-0.7,0-1.5,0h-1.5l-0.1-0.2c0-0.1-0.1-0.6-0.2-1.1c-0.1-1-0.2-1.1-0.7-1.2l-0.3,0v1.3v1.3h-1.5h-1.5
		C51.6,29.4,51.6,25.7,51.6,25.7z M55.3,24.8c0.2-0.2,0.3-0.5,0.1-0.7c-0.1-0.1-0.2-0.2-0.5-0.2l-0.4,0v0.6V25l0.3,0
		C55.1,25,55.2,24.9,55.3,24.8L55.3,24.8z M60.4,25.7v-3.6h1.8H64l0.6,1.8l0.6,1.8l0-1.8l0-1.8h1.2h1.2v3.6v3.6H66h-1.8l-0.6-1.9
		l-0.6-1.9l0,1.9l0,1.9h-1.2h-1.2C60.4,29.4,60.4,25.7,60.4,25.7z"/>

</g>
</svg>
